pipeline {
    agent any

    stages {
        stage('Build') {
            steps {
                sh '''echo "Building started"
                      echo "Branch Name: $BRANCH_NAME"'''
            }
        }
        
        stage('continious deployment') {
        steps {
		  sh 'scp /root/.jenkins/workspace/Sanjay_TestJob_2_master/index.html.txt appadmin@10.18.0.182:"/var/www/html/index.html"' 
		      }
        }
    }
}